{
  "paths": {
    "/api/goals/": {
      "get": {
        "description": "To fetch all or filter casting roles ",
        "responses": {
          "200": {
            "description": "OK",
            "schema": {
              "type": "object"
            }
          },
          "500": {
            "description": "Internal Server Error"
          }
        },
        "security": [
          {
            "Authorization": []
          }
        ]
      }
    },
    "/api/users/": {
      "post": {
        "description": "To register a user",
        "consumes": "application/x-www-form-urlencoded",
        "parameters": [
          {
            "name": "name",
            "in": "formData",
            "type": "string"
          },
          {
            "name": "email",
            "in": "formData",
            "type": "string"
          },
          {
            "name": "password",
            "in": "formData",
            "type": "string"
          }
        ],
        "responses": {
          "200": {
            "description": "OK",
            "schema": {
              "type": "object",
              "properties": {
                "_id": {
                  "type": "string"
                },
                "name": {
                  "type": "string"
                },
                "email": {
                  "type": "string"
                },
                "token": {
                  "type": "string"
                }
              },
              "example": {
                "_id": "6346a98dc7e0daec408bbcca",
                "name": "jill",
                "email": "jill@gmail.com",
                "token": "eyJhbGciOiJIUzI1NiIsInR5cCI6IkpXVCJ9.eyJpZCI6IjYzNDZhOThkYzdlMGRhZWM0MDhiYmNjYSIsImlhdCI6MTY2NTU3NTMwOSwiZXhwIjoxNjY4MTY3MzA5fQ.NqemX2sNtM9wLLHPqAq6M5xaMUjuHbYtEWfezrBKl_I"
              }
            }
          },
          "500": {
            "description": "Internal Server Error"
          }
        }
      }
    },
    "/api/users/login": {
      "post": {
        "description": "To login a user",
        "consumes": "application/x-www-form-urlencoded",
        "parameters": [
          {
            "name": "email",
            "in": "formData",
            "type": "string"
          },
          {
            "name": "password",
            "in": "formData",
            "type": "string"
          }
        ],
        "responses": {
          "200": {
            "description": "OK",
            "schema": {
              "type": "object",
              "properties": {
                "_id": {
                  "type": "string"
                },
                "name": {
                  "type": "string"
                },
                "email": {
                  "type": "string"
                },
                "token": {
                  "type": "string"
                }
              },
              "example": {
                "_id": "6346a98dc7e0daec408bbcca",
                "name": "jill",
                "email": "jill@gmail.com",
                "token": "eyJhbGciOiJIUzI1NiIsInR5cCI6IkpXVCJ9.eyJpZCI6IjYzNDZhOThkYzdlMGRhZWM0MDhiYmNjYSIsImlhdCI6MTY2NTU3NTMwOSwiZXhwIjoxNjY4MTY3MzA5fQ.NqemX2sNtM9wLLHPqAq6M5xaMUjuHbYtEWfezrBKl_I"
              }
            }
          },
          "500": {
            "description": "Internal Server Error"
          }
        }
      }
    },
    "/api/users/me": {
      "get": {
        "description": "To get the profile details",
        "consumes": "application/x-www-form-urlencoded",
        "parameters": {
          "_id": {
            "type": "string"
          },
          "first_name": {
            "type": "string"
          },
          "last_name": {
            "type": "string"
          },
          "phone_number": {
            "type": "string"
          },
          "subscribe": {
            "type": "Boolean"
          },
          "status": {
            "type": "enum"
          },
          "email": {
            "type": "string"
          },
          "token": {
            "type": "string"
          }
        },
        "responses": {
          "200": {
            "description": "OK",
            "schema": {
              "type": "object",
              "properties": {},
              "example": {
                "data": [
                  {
                    "_id": "6343c700c64957d14cd517cf",
                    "first_name": "jacob",
                    "last_name": "jose",
                    "email": "jacob.jose.tblr@gmail.com",
                    "phone_number": "9594979898",
                    "password": "$2a$12$bhHQiAw3gjx89RfYa0eGO.MGqKAul/DVdVmnkr49A4G3cYHcC.Zi6",
                    "image": "profile_image-1665386240558.jpeg",
                    "subscribe": true,
                    "status": "Active",
                    "role_id": "6343ba4a36229e834b082b8f",
                    "createdAt": "2022-10-10T07:17:20.849Z",
                    "updatedAt": "2022-10-10T07:17:20.849Z",
                    "__v": 0
                  }
                ]
              }
            }
          },
          "500": {
            "description": "Internal Server Error"
          }
        },
        "security": [
          {
            "Authorization": []
          }
        ]
      }
    },
    "/api/goals": {
      "post": {
        "description": "To set the goals",
        "consumes": "application/x-www-form-urlencoded",
        "parameters": [
          {
            "name": "text",
            "in": "formData",
            "type": "string"
          }
        ],
        "responses": {
          "200": {
            "description": "OK",
            "schema": {
              "type": "object",
              "properties": {},
              "example": {
                "user": "6346a98dc7e0daec408bbcca",
                "text": "To sleep",
                "_id": "6346b8e9e3ea2ba73d1947dd",
                "createdAt": "2022-10-12T12:54:01.596Z",
                "updatedAt": "2022-10-12T12:54:01.596Z",
                "__v": 0
              }
            }
          },
          "500": {
            "description": "Internal Server Error"
          }
        },
        "security": [
          {
            "Authorization": []
          }
        ]
      }
    },
    "/api/goals/{id}": {
      "put": {
        "description": "To update the goals",
        "consumes": "application/x-www-form-urlencoded",
        "parameters": [
          {
            "name":"id",
            "in":"path",
            "type":"string" 
          },
          {
            "name": "text",
            "in": "formData",
            "type": "string"
          }
        ],
        "responses": {
          "200": {
            "description": "OK",
            "schema": {
              "type": "object",
              "properties": {},
              "example": {
                "user": "6346a98dc7e0daec408bbcca",
                "text": "To sleep",
                "_id": "6346b8e9e3ea2ba73d1947dd",
                "createdAt": "2022-10-12T12:54:01.596Z",
                "updatedAt": "2022-10-12T12:54:01.596Z",
                "__v": 0
              }
            }
          },
          "500": {
            "description": "Internal Server Error"
          }
        },
        "security": [
          {
            "Authorization": []
          }
        ]
      }
    },
    "/api/goals/{id}": {
      "delete": {
        "description": "To delete the goals",
        "consumes": "application/x-www-form-urlencoded",
        "parameters": [
          {
            "name":"id",
            "in":"path",
            "type":"string" 
          }
        ],
        "responses": {
          "200": {
            "description": "OK",
            "schema": {
              "type": "object",
              "properties": {},
              "example": {
                "user": "6346a98dc7e0daec408bbcca",
                "text": "To sleep",
                "_id": "6346b8e9e3ea2ba73d1947dd",
                "createdAt": "2022-10-12T12:54:01.596Z",
                "updatedAt": "2022-10-12T12:54:01.596Z",
                "__v": 0
              }
            }
          },
          "500": {
            "description": "Internal Server Error"
          }
        },
        "security": [
          {
            "Authorization": []
          }
        ]
      }
    }
  }
}